{ 
      "properties":{ 
         "id":{ 
            "index":true,
            "type":"keyword", 
            "store":true
         }, 
         "subshape": {
            "type": "geo_shape"
         }
      }
}
